12-Jan-2023 04:00:11.473 info: client @0x7f2230009958 172.20.0.14#17644 (del.inter.net): query: del.inter.net IN A -E(0) (172.20.0.6)
12-Jan-2023 04:00:11.503 info: client @0x7f225c1cfb98 172.20.0.14#37148 (b1.inter.net): query: b1.inter.net IN A -E(0) (172.20.0.6)
12-Jan-2023 04:00:11.503 info: client @0x7f223c00ef08 172.20.0.14#9581 (sub.b1.inter.net): query: sub.b1.inter.net IN A -E(0) (172.20.0.6)
12-Jan-2023 04:00:11.513 info: client @0x7f2224001688 172.20.0.14#39363 (d1.inter.net): query: d1.inter.net IN A -E(0) (172.20.0.6)
12-Jan-2023 04:00:11.513 info: client @0x7f2244008738 172.20.0.14#30289 (sub.d1.inter.net): query: sub.d1.inter.net IN A -E(0) (172.20.0.6)
12-Jan-2023 04:00:11.523 info: client @0x7f222c002698 172.20.0.14#10484 (f1.inter.net): query: f1.inter.net IN A -E(0) (172.20.0.6)
12-Jan-2023 04:00:11.523 info: client @0x7f225c1cfb98 172.20.0.14#11336 (sub.f1.inter.net): query: sub.f1.inter.net IN A -E(0) (172.20.0.6)
12-Jan-2023 04:00:11.533 info: client @0x7f2244008738 172.20.0.14#40303 (h1.inter.net): query: h1.inter.net IN A -E(0) (172.20.0.6)
12-Jan-2023 04:00:11.533 info: client @0x7f223402ee88 172.20.0.14#15464 (sub.h1.inter.net): query: sub.h1.inter.net IN A -E(0) (172.20.0.6)
12-Jan-2023 04:00:11.543 info: client @0x7f2248003538 172.20.0.14#1337 (j1.inter.net): query: j1.inter.net IN A -E(0) (172.20.0.6)
12-Jan-2023 04:00:11.553 info: client @0x7f222c002698 172.20.0.14#61673 (sub.j1.inter.net): query: sub.j1.inter.net IN A -E(0) (172.20.0.6)
12-Jan-2023 04:00:11.563 info: client @0x7f224000ba38 172.20.0.14#49125 (b3.inter.net): query: b3.inter.net IN A -E(0) (172.20.0.6)
12-Jan-2023 04:00:11.563 info: client @0x7f22500027f8 172.20.0.14#51464 (sub.b3.inter.net): query: sub.b3.inter.net IN A -E(0) (172.20.0.6)
12-Jan-2023 04:00:11.573 info: client @0x7f224000ba38 172.20.0.14#63597 (d3.inter.net): query: d3.inter.net IN A -E(0) (172.20.0.6)
12-Jan-2023 04:00:11.583 info: client @0x7f224c00d7d8 172.20.0.14#56033 (sub.d3.inter.net): query: sub.d3.inter.net IN A -E(0) (172.20.0.6)
12-Jan-2023 04:00:11.593 info: client @0x7f2224001688 172.20.0.14#37034 (f3.inter.net): query: f3.inter.net IN A -E(0) (172.20.0.6)
12-Jan-2023 04:00:11.593 info: client @0x7f2254001bf8 172.20.0.14#1993 (sub.f3.inter.net): query: sub.f3.inter.net IN A -E(0) (172.20.0.6)
12-Jan-2023 04:00:11.603 info: client @0x7f2248003538 172.20.0.14#29922 (h3.inter.net): query: h3.inter.net IN A -E(0) (172.20.0.6)
12-Jan-2023 04:00:11.603 info: client @0x7f225c1cfb98 172.20.0.14#23138 (sub.h3.inter.net): query: sub.h3.inter.net IN A -E(0) (172.20.0.6)
12-Jan-2023 04:00:11.613 info: client @0x7f225c1cfb98 172.20.0.14#63218 (j3.inter.net): query: j3.inter.net IN A -E(0) (172.20.0.6)
12-Jan-2023 04:00:11.623 info: client @0x7f225c1cfb98 172.20.0.14#1568 (sub.j3.inter.net): query: sub.j3.inter.net IN A -E(0) (172.20.0.6)
12-Jan-2023 04:00:11.633 info: client @0x7f2230009958 172.20.0.14#52826 (b6.inter.net): query: b6.inter.net IN A -E(0) (172.20.0.6)
12-Jan-2023 04:00:11.633 info: client @0x7f222c002698 172.20.0.14#25296 (sub.b6.inter.net): query: sub.b6.inter.net IN A -E(0) (172.20.0.6)
12-Jan-2023 04:00:11.643 info: client @0x7f224c00d7d8 172.20.0.14#54776 (d6.inter.net): query: d6.inter.net IN A -E(0) (172.20.0.6)
12-Jan-2023 04:00:11.653 info: client @0x7f223c00ef08 172.20.0.14#32593 (sub.d6.inter.net): query: sub.d6.inter.net IN A -E(0) (172.20.0.6)
12-Jan-2023 04:00:11.663 info: client @0x7f22500027f8 172.20.0.14#19070 (f6.inter.net): query: f6.inter.net IN A -E(0) (172.20.0.6)
12-Jan-2023 04:00:11.663 info: client @0x7f223402ee88 172.20.0.14#27779 (sub.f6.inter.net): query: sub.f6.inter.net IN A -E(0) (172.20.0.6)
12-Jan-2023 04:00:11.673 info: client @0x7f2254001bf8 172.20.0.14#12832 (h6.inter.net): query: h6.inter.net IN A -E(0) (172.20.0.6)
12-Jan-2023 04:00:11.673 info: client @0x7f225c1cfb98 172.20.0.14#6872 (sub.h6.inter.net): query: sub.h6.inter.net IN A -E(0) (172.20.0.6)
12-Jan-2023 04:00:11.683 info: client @0x7f2244008738 172.20.0.14#52723 (j6.inter.net): query: j6.inter.net IN A -E(0) (172.20.0.6)
12-Jan-2023 04:00:11.683 info: client @0x7f223402ee88 172.20.0.14#61441 (sub.j6.inter.net): query: sub.j6.inter.net IN A -E(0) (172.20.0.6)
12-Jan-2023 04:00:11.703 info: client @0x7f223c00ef08 172.20.0.14#34109 (b7.inter.net): query: b7.inter.net IN A -E(0) (172.20.0.6)
12-Jan-2023 04:00:11.703 info: client @0x7f222c002698 172.20.0.14#43828 (sub.b7.inter.net): query: sub.b7.inter.net IN A -E(0) (172.20.0.6)
12-Jan-2023 04:00:11.713 info: client @0x7f223c00ef08 172.20.0.14#38388 (d7.inter.net): query: d7.inter.net IN A -E(0) (172.20.0.6)
12-Jan-2023 04:00:11.713 info: client @0x7f224000ba38 172.20.0.14#28847 (sub.d7.inter.net): query: sub.d7.inter.net IN A -E(0) (172.20.0.6)
12-Jan-2023 04:00:11.723 info: client @0x7f2244008738 172.20.0.14#52054 (f7.inter.net): query: f7.inter.net IN A -E(0) (172.20.0.6)
12-Jan-2023 04:00:11.723 info: client @0x7f224c00d7d8 172.20.0.14#23380 (sub.f7.inter.net): query: sub.f7.inter.net IN A -E(0) (172.20.0.6)
12-Jan-2023 04:00:11.733 info: client @0x7f224c00d7d8 172.20.0.14#26797 (h7.inter.net): query: h7.inter.net IN A -E(0) (172.20.0.6)
12-Jan-2023 04:00:11.743 info: client @0x7f223c00ef08 172.20.0.14#41426 (sub.h7.inter.net): query: sub.h7.inter.net IN A -E(0) (172.20.0.6)
12-Jan-2023 04:00:11.753 info: client @0x7f2224001688 172.20.0.14#51638 (j7.inter.net): query: j7.inter.net IN A -E(0) (172.20.0.6)
12-Jan-2023 04:00:11.753 info: client @0x7f2224001688 172.20.0.14#44464 (sub.j7.inter.net): query: sub.j7.inter.net IN A -E(0) (172.20.0.6)
12-Jan-2023 04:00:11.773 info: client @0x7f2230009958 172.20.0.14#28103 (b5.inter.net): query: b5.inter.net IN A -E(0) (172.20.0.6)
12-Jan-2023 04:00:11.773 info: client @0x7f223c00ef08 172.20.0.14#4844 (sub.b5.inter.net): query: sub.b5.inter.net IN A -E(0) (172.20.0.6)
12-Jan-2023 04:00:11.783 info: client @0x7f22500027f8 172.20.0.14#51127 (d5.inter.net): query: d5.inter.net IN A -E(0) (172.20.0.6)