12-Jan-2023 14:27:35.107 info: client @0x7f6dc400d688 172.20.0.12#33726 (a4.target.com): query: a4.target.com IN A -E(0)DC (172.20.0.5)
12-Jan-2023 14:27:35.107 info: client @0x7f6dd8001ef8 172.20.0.12#22995 (a3.target.com): query: a3.target.com IN A -E(0)DC (172.20.0.5)
12-Jan-2023 14:27:35.117 info: client @0x7f6dc40107f8 172.20.0.12#45088 (a9.target.com): query: a9.target.com IN A -E(0)DC (172.20.0.5)
12-Jan-2023 14:27:35.117 info: client @0x7f6dc000e188 172.20.0.12#30216 (sub.a4.target.com): query: sub.a4.target.com IN A -E(0)DC (172.20.0.5)
12-Jan-2023 14:27:35.117 info: client @0x7f6ddc011968 172.20.0.12#30975 (sub.a3.target.com): query: sub.a3.target.com IN A -E(0)DC (172.20.0.5)
12-Jan-2023 14:27:35.117 info: client @0x7f6db4019d48 172.20.0.12#42327 (sub.a9.target.com): query: sub.a9.target.com IN A -E(0)DC (172.20.0.5)
12-Jan-2023 14:27:35.117 info: client @0x7f6dd005dc98 172.20.0.12#29694 (b3.target.com): query: b3.target.com IN A -E(0)DC (172.20.0.5)
12-Jan-2023 14:27:35.117 info: client @0x7f6db401f8d8 172.20.0.12#27306 (b4.target.com): query: b4.target.com IN A -E(0)DC (172.20.0.5)
12-Jan-2023 14:27:35.127 info: client @0x7f6dd000eb28 172.20.0.12#29068 (b9.target.com): query: b9.target.com IN A -E(0)DC (172.20.0.5)
12-Jan-2023 14:27:35.127 info: client @0x7f6db4014218 172.20.0.12#10028 (sub.b3.target.com): query: sub.b3.target.com IN A -E(0)DC (172.20.0.5)
12-Jan-2023 14:27:35.127 info: client @0x7f6de0017ff8 172.20.0.12#47730 (sub.b9.target.com): query: sub.b9.target.com IN A -E(0)DC (172.20.0.5)
12-Jan-2023 14:27:35.127 info: client @0x7f6dd8001ef8 172.20.0.12#38622 (sub.b4.target.com): query: sub.b4.target.com IN A -E(0)DC (172.20.0.5)
12-Jan-2023 14:27:35.127 info: client @0x7f6dc000e188 172.20.0.12#13271 (c3.target.com): query: c3.target.com IN A -E(0)DC (172.20.0.5)
12-Jan-2023 14:27:35.137 info: client @0x7f6de8268678 172.20.0.12#10877 (c9.target.com): query: c9.target.com IN A -E(0)DC (172.20.0.5)
12-Jan-2023 14:27:35.137 info: client @0x7f6db4014218 172.20.0.12#23519 (c4.target.com): query: c4.target.com IN A -E(0)DC (172.20.0.5)
12-Jan-2023 14:27:35.137 info: client @0x7f6dc000e188 172.20.0.12#14528 (sub.c3.target.com): query: sub.c3.target.com IN A -E(0)DC (172.20.0.5)
12-Jan-2023 14:27:35.137 info: client @0x7f6de8268678 172.20.0.12#49627 (sub.c9.target.com): query: sub.c9.target.com IN A -E(0)DC (172.20.0.5)
12-Jan-2023 14:27:35.137 info: client @0x7f6ddc011968 172.20.0.12#53548 (sub.c4.target.com): query: sub.c4.target.com IN A -E(0)DC (172.20.0.5)
12-Jan-2023 14:27:35.137 info: client @0x7f6de4001e98 172.20.0.12#1276 (d3.target.com): query: d3.target.com IN A -E(0)DC (172.20.0.5)
12-Jan-2023 14:27:35.147 info: client @0x7f6ddc022988 172.20.0.12#45843 (d9.target.com): query: d9.target.com IN A -E(0)DC (172.20.0.5)
12-Jan-2023 14:27:35.147 info: client @0x7f6dc80742d8 172.20.0.12#46265 (d4.target.com): query: d4.target.com IN A -E(0)DC (172.20.0.5)
12-Jan-2023 14:27:35.147 info: client @0x7f6dcc001d48 172.20.0.12#44898 (sub.d3.target.com): query: sub.d3.target.com IN A -E(0)DC (172.20.0.5)
12-Jan-2023 14:27:35.147 info: client @0x7f6db4014218 172.20.0.12#34800 (sub.d9.target.com): query: sub.d9.target.com IN A -E(0)DC (172.20.0.5)
12-Jan-2023 14:27:35.147 info: client @0x7f6ddc022988 172.20.0.12#29407 (e3.target.com): query: e3.target.com IN A -E(0)DC (172.20.0.5)
12-Jan-2023 14:27:35.147 info: client @0x7f6db401f8d8 172.20.0.12#37209 (sub.d4.target.com): query: sub.d4.target.com IN A -E(0)DC (172.20.0.5)
12-Jan-2023 14:27:35.157 info: client @0x7f6de8268678 172.20.0.12#34294 (e9.target.com): query: e9.target.com IN A -E(0)DC (172.20.0.5)
12-Jan-2023 14:27:35.157 info: client @0x7f6dd000eb28 172.20.0.12#17100 (sub.e3.target.com): query: sub.e3.target.com IN A -E(0)DC (172.20.0.5)
12-Jan-2023 14:27:35.157 info: client @0x7f6dc40107f8 172.20.0.12#35404 (e4.target.com): query: e4.target.com IN A -E(0)DC (172.20.0.5)
12-Jan-2023 14:27:35.157 info: client @0x7f6de8268678 172.20.0.12#27247 (f3.target.com): query: f3.target.com IN A -E(0)DC (172.20.0.5)
12-Jan-2023 14:27:35.157 info: client @0x7f6dbc02b308 172.20.0.12#26212 (sub.e9.target.com): query: sub.e9.target.com IN A -E(0)DC (172.20.0.5)
12-Jan-2023 14:27:35.157 info: client @0x7f6ddc022988 172.20.0.12#45003 (sub.e4.target.com): query: sub.e4.target.com IN A -E(0)DC (172.20.0.5)
12-Jan-2023 14:27:35.167 info: client @0x7f6dbc0283f8 172.20.0.12#34276 (sub.f3.target.com): query: sub.f3.target.com IN A -E(0)DC (172.20.0.5)
12-Jan-2023 14:27:35.167 info: client @0x7f6ddc011968 172.20.0.12#64491 (f9.target.com): query: f9.target.com IN A -E(0)DC (172.20.0.5)
12-Jan-2023 14:27:35.167 info: client @0x7f6de8268678 172.20.0.12#32538 (f4.target.com): query: f4.target.com IN A -E(0)DC (172.20.0.5)
12-Jan-2023 14:27:35.167 info: client @0x7f6db401f8d8 172.20.0.12#36103 (g3.target.com): query: g3.target.com IN A -E(0)DC (172.20.0.5)
12-Jan-2023 14:27:35.167 info: client @0x7f6ddc011968 172.20.0.12#52916 (sub.f9.target.com): query: sub.f9.target.com IN A -E(0)DC (172.20.0.5)
12-Jan-2023 14:27:35.167 info: client @0x7f6dc40107f8 172.20.0.12#23097 (sub.f4.target.com): query: sub.f4.target.com IN A -E(0)DC (172.20.0.5)
12-Jan-2023 14:27:35.177 info: client @0x7f6de0017ff8 172.20.0.12#13005 (sub.g3.target.com): query: sub.g3.target.com IN A -E(0)DC (172.20.0.5)
12-Jan-2023 14:27:35.177 info: client @0x7f6dbc0283f8 172.20.0.12#45761 (g9.target.com): query: g9.target.com IN A -E(0)DC (172.20.0.5)
12-Jan-2023 14:27:35.177 info: client @0x7f6dd8001ef8 172.20.0.12#36783 (g4.target.com): query: g4.target.com IN A -E(0)DC (172.20.0.5)
12-Jan-2023 14:27:35.177 info: client @0x7f6dc40107f8 172.20.0.12#62190 (h3.target.com): query: h3.target.com IN A -E(0)DC (172.20.0.5)
12-Jan-2023 14:27:35.177 info: client @0x7f6dd8014878 172.20.0.12#20743 (sub.g9.target.com): query: sub.g9.target.com IN A -E(0)DC (172.20.0.5)
12-Jan-2023 14:27:35.177 info: client @0x7f6de4001e98 172.20.0.12#18417 (sub.g4.target.com): query: sub.g4.target.com IN A -E(0)DC (172.20.0.5)
12-Jan-2023 14:27:35.177 info: client @0x7f6dc000e188 172.20.0.12#39820 (sub.h3.target.com): query: sub.h3.target.com IN A -E(0)DC (172.20.0.5)
12-Jan-2023 14:27:35.187 info: client @0x7f6de4016328 172.20.0.12#20752 (h9.target.com): query: h9.target.com IN A -E(0)DC (172.20.0.5)
12-Jan-2023 14:27:35.187 info: client @0x7f6dbc0283f8 172.20.0.12#28264 (h4.target.com): query: h4.target.com IN A -E(0)DC (172.20.0.5)
12-Jan-2023 14:27:35.187 info: client @0x7f6dd000eb28 172.20.0.12#61466 (i3.target.com): query: i3.target.com IN A -E(0)DC (172.20.0.5)
12-Jan-2023 14:27:35.187 info: client @0x7f6dcc001d48 172.20.0.12#4975 (sub.h9.target.com): query: sub.h9.target.com IN A -E(0)DC (172.20.0.5)
12-Jan-2023 14:27:35.187 info: client @0x7f6dbc0283f8 172.20.0.12#25910 (sub.h4.target.com): query: sub.h4.target.com IN A -E(0)DC (172.20.0.5)
12-Jan-2023 14:27:35.187 info: client @0x7f6de0017ff8 172.20.0.12#24312 (sub.i3.target.com): query: sub.i3.target.com IN A -E(0)DC (172.20.0.5)
12-Jan-2023 14:27:35.197 info: client @0x7f6dc000e188 172.20.0.12#34227 (i9.target.com): query: i9.target.com IN A -E(0)DC (172.20.0.5)
12-Jan-2023 14:27:35.197 info: client @0x7f6dc40107f8 172.20.0.12#41517 (i4.target.com): query: i4.target.com IN A -E(0)DC (172.20.0.5)
12-Jan-2023 14:27:35.197 info: client @0x7f6dc0001b88 172.20.0.12#26530 (j3.target.com): query: j3.target.com IN A -E(0)DC (172.20.0.5)
12-Jan-2023 14:27:35.197 info: client @0x7f6dcc001d48 172.20.0.12#42346 (sub.i9.target.com): query: sub.i9.target.com IN A -E(0)DC (172.20.0.5)
12-Jan-2023 14:27:35.197 info: client @0x7f6dc40107f8 172.20.0.12#60030 (sub.i4.target.com): query: sub.i4.target.com IN A -E(0)DC (172.20.0.5)
12-Jan-2023 14:27:35.197 info: client @0x7f6dd8014878 172.20.0.12#24917 (sub.j3.target.com): query: sub.j3.target.com IN A -E(0)DC (172.20.0.5)
12-Jan-2023 14:27:35.197 info: client @0x7f6dbc0283f8 172.20.0.12#44653 (j9.target.com): query: j9.target.com IN A -E(0)DC (172.20.0.5)
12-Jan-2023 14:27:35.207 info: client @0x7f6dc40107f8 172.20.0.12#56186 (k3.target.com): query: k3.target.com IN A -E(0)DC (172.20.0.5)
12-Jan-2023 14:27:35.207 info: client @0x7f6de0017ff8 172.20.0.12#62104 (j4.target.com): query: j4.target.com IN A -E(0)DC (172.20.0.5)
12-Jan-2023 14:27:35.207 info: client @0x7f6dc80742d8 172.20.0.12#13068 (sub.j9.target.com): query: sub.j9.target.com IN A -E(0)DC (172.20.0.5)
12-Jan-2023 14:27:35.207 info: client @0x7f6de4016328 172.20.0.12#18320 (sub.k3.target.com): query: sub.k3.target.com IN A -E(0)DC (172.20.0.5)
12-Jan-2023 14:27:35.207 info: client @0x7f6de0017ff8 172.20.0.12#46283 (sub.j4.target.com): query: sub.j4.target.com IN A -E(0)DC (172.20.0.5)
12-Jan-2023 14:27:35.207 info: client @0x7f6dc80742d8 172.20.0.12#18794 (k9.target.com): query: k9.target.com IN A -E(0)DC (172.20.0.5)
12-Jan-2023 14:27:35.217 info: client @0x7f6db401f8d8 172.20.0.12#49853 (l3.target.com): query: l3.target.com IN A -E(0)DC (172.20.0.5)
12-Jan-2023 14:27:35.217 info: client @0x7f6dcc001d48 172.20.0.12#65320 (k4.target.com): query: k4.target.com IN A -E(0)DC (172.20.0.5)
12-Jan-2023 14:27:35.217 info: client @0x7f6dd000eb28 172.20.0.12#42139 (sub.k9.target.com): query: sub.k9.target.com IN A -E(0)DC (172.20.0.5)
12-Jan-2023 14:27:35.217 info: client @0x7f6de4016328 172.20.0.12#53202 (sub.l3.target.com): query: sub.l3.target.com IN A -E(0)DC (172.20.0.5)
12-Jan-2023 14:27:35.217 info: client @0x7f6dcc001d48 172.20.0.12#37971 (sub.k4.target.com): query: sub.k4.target.com IN A -E(0)DC (172.20.0.5)
12-Jan-2023 14:27:35.217 info: client @0x7f6ddc011968 172.20.0.12#54049 (l9.target.com): query: l9.target.com IN A -E(0)DC (172.20.0.5)
12-Jan-2023 14:27:35.217 info: client @0x7f6db401f8d8 172.20.0.12#60694 (l4.target.com): query: l4.target.com IN A -E(0)DC (172.20.0.5)
12-Jan-2023 14:27:35.227 info: client @0x7f6dc0001b88 172.20.0.12#64632 (sub.l9.target.com): query: sub.l9.target.com IN A -E(0)DC (172.20.0.5)
12-Jan-2023 14:27:35.227 info: client @0x7f6dc000e188 172.20.0.12#42850 (sub.l4.target.com): query: sub.l4.target.com IN A -E(0)DC (172.20.0.5)
12-Jan-2023 14:27:35.227 info: client @0x7f6dd000eb28 172.20.0.12#30167 (a2.target.com): query: a2.target.com IN A -E(0)DC (172.20.0.5)
12-Jan-2023 14:27:35.227 info: client @0x7f6de8268678 172.20.0.12#27046 (sub.a2.target.com): query: sub.a2.target.com IN A -E(0)DC (172.20.0.5)
12-Jan-2023 14:27:35.227 info: client @0x7f6ddc011968 172.20.0.12#37972 (b2.target.com): query: b2.target.com IN A -E(0)DC (172.20.0.5)
12-Jan-2023 14:27:35.237 info: client @0x7f6db401f8d8 172.20.0.12#7225 (sub.b2.target.com): query: sub.b2.target.com IN A -E(0)DC (172.20.0.5)
12-Jan-2023 14:27:35.237 info: client @0x7f6dd8014878 172.20.0.12#21253 (c2.target.com): query: c2.target.com IN A -E(0)DC (172.20.0.5)
12-Jan-2023 14:27:35.237 info: client @0x7f6db401f8d8 172.20.0.12#17821 (sub.c2.target.com): query: sub.c2.target.com IN A -E(0)DC (172.20.0.5)
12-Jan-2023 14:27:35.237 info: client @0x7f6dd000eb28 172.20.0.12#17109 (d2.target.com): query: d2.target.com IN A -E(0)DC (172.20.0.5)
12-Jan-2023 14:27:35.237 info: client @0x7f6de0017ff8 172.20.0.12#20520 (sub.d2.target.com): query: sub.d2.target.com IN A -E(0)DC (172.20.0.5)
12-Jan-2023 14:27:35.247 info: client @0x7f6dd8014878 172.20.0.12#64275 (e2.target.com): query: e2.target.com IN A -E(0)DC (172.20.0.5)
12-Jan-2023 14:27:35.247 info: client @0x7f6de0017ff8 172.20.0.12#64603 (sub.e2.target.com): query: sub.e2.target.com IN A -E(0)DC (172.20.0.5)
12-Jan-2023 14:27:35.247 info: client @0x7f6dc40107f8 172.20.0.12#32290 (f2.target.com): query: f2.target.com IN A -E(0)DC (172.20.0.5)
12-Jan-2023 14:27:35.247 info: client @0x7f6de0017ff8 172.20.0.12#9387 (sub.f2.target.com): query: sub.f2.target.com IN A -E(0)DC (172.20.0.5)
12-Jan-2023 14:27:35.257 info: client @0x7f6de4016328 172.20.0.12#30867 (g2.target.com): query: g2.target.com IN A -E(0)DC (172.20.0.5)
12-Jan-2023 14:27:35.257 info: client @0x7f6dc40107f8 172.20.0.12#50701 (sub.g2.target.com): query: sub.g2.target.com IN A -E(0)DC (172.20.0.5)
12-Jan-2023 14:27:35.257 info: client @0x7f6de8268678 172.20.0.12#50317 (h2.target.com): query: h2.target.com IN A -E(0)DC (172.20.0.5)
12-Jan-2023 14:27:35.257 info: client @0x7f6ddc011968 172.20.0.12#12016 (sub.h2.target.com): query: sub.h2.target.com IN A -E(0)DC (172.20.0.5)
12-Jan-2023 14:27:35.257 info: client @0x7f6dc000e188 172.20.0.12#27147 (i2.target.com): query: i2.target.com IN A -E(0)DC (172.20.0.5)
12-Jan-2023 14:27:35.267 info: client @0x7f6de4016328 172.20.0.12#28505 (sub.i2.target.com): query: sub.i2.target.com IN A -E(0)DC (172.20.0.5)
12-Jan-2023 14:27:35.267 info: client @0x7f6dbc0283f8 172.20.0.12#6234 (j2.target.com): query: j2.target.com IN A -E(0)DC (172.20.0.5)
12-Jan-2023 14:27:35.267 info: client @0x7f6de8268678 172.20.0.12#52495 (sub.j2.target.com): query: sub.j2.target.com IN A -E(0)DC (172.20.0.5)
12-Jan-2023 14:27:35.267 info: client @0x7f6dbc0283f8 172.20.0.12#5776 (k2.target.com): query: k2.target.com IN A -E(0)DC (172.20.0.5)
12-Jan-2023 14:27:35.277 info: client @0x7f6de0017ff8 172.20.0.12#16653 (sub.k2.target.com): query: sub.k2.target.com IN A -E(0)DC (172.20.0.5)
12-Jan-2023 14:27:35.277 info: client @0x7f6dc000e188 172.20.0.12#64165 (l2.target.com): query: l2.target.com IN A -E(0)DC (172.20.0.5)
12-Jan-2023 14:27:35.277 info: client @0x7f6dd000eb28 172.20.0.12#16683 (sub.l2.target.com): query: sub.l2.target.com IN A -E(0)DC (172.20.0.5)
12-Jan-2023 14:27:35.277 info: client @0x7f6db401f8d8 172.20.0.12#65242 (a8.target.com): query: a8.target.com IN A -E(0)DC (172.20.0.5)
12-Jan-2023 14:27:35.287 info: client @0x7f6dd000eb28 172.20.0.12#19880 (sub.a8.target.com): query: sub.a8.target.com IN A -E(0)DC (172.20.0.5)
12-Jan-2023 14:27:35.287 info: client @0x7f6dbc0283f8 172.20.0.12#52775 (b8.target.com): query: b8.target.com IN A -E(0)DC (172.20.0.5)
12-Jan-2023 14:27:35.287 info: client @0x7f6db401f8d8 172.20.0.12#20100 (sub.b8.target.com): query: sub.b8.target.com IN A -E(0)DC (172.20.0.5)
12-Jan-2023 14:27:35.287 info: client @0x7f6dc000e188 172.20.0.12#57984 (c8.target.com): query: c8.target.com IN A -E(0)DC (172.20.0.5)
12-Jan-2023 14:27:35.297 info: client @0x7f6dc40107f8 172.20.0.12#64302 (sub.c8.target.com): query: sub.c8.target.com IN A -E(0)DC (172.20.0.5)
12-Jan-2023 14:27:35.297 info: client @0x7f6dc40107f8 172.20.0.12#24803 (d8.target.com): query: d8.target.com IN A -E(0)DC (172.20.0.5)
12-Jan-2023 14:27:35.297 info: client @0x7f6de0017ff8 172.20.0.12#63294 (sub.d8.target.com): query: sub.d8.target.com IN A -E(0)DC (172.20.0.5)
12-Jan-2023 14:27:35.297 info: client @0x7f6de8268678 172.20.0.12#15266 (e8.target.com): query: e8.target.com IN A -E(0)DC (172.20.0.5)
12-Jan-2023 14:27:35.307 info: client @0x7f6de4016328 172.20.0.12#34782 (sub.e8.target.com): query: sub.e8.target.com IN A -E(0)DC (172.20.0.5)
12-Jan-2023 14:27:35.307 info: client @0x7f6dcc001d48 172.20.0.12#2999 (f8.target.com): query: f8.target.com IN A -E(0)DC (172.20.0.5)
12-Jan-2023 14:27:35.307 info: client @0x7f6de0017ff8 172.20.0.12#49860 (sub.f8.target.com): query: sub.f8.target.com IN A -E(0)DC (172.20.0.5)
12-Jan-2023 14:27:35.307 info: client @0x7f6dc40107f8 172.20.0.12#7897 (g8.target.com): query: g8.target.com IN A -E(0)DC (172.20.0.5)
12-Jan-2023 14:27:35.317 info: client @0x7f6dbc0283f8 172.20.0.12#24420 (sub.g8.target.com): query: sub.g8.target.com IN A -E(0)DC (172.20.0.5)
12-Jan-2023 14:27:35.317 info: client @0x7f6ddc011968 172.20.0.12#24084 (h8.target.com): query: h8.target.com IN A -E(0)DC (172.20.0.5)
12-Jan-2023 14:27:35.317 info: client @0x7f6de0017ff8 172.20.0.12#61150 (sub.h8.target.com): query: sub.h8.target.com IN A -E(0)DC (172.20.0.5)
12-Jan-2023 14:27:35.327 info: client @0x7f6dbc0283f8 172.20.0.12#51122 (i8.target.com): query: i8.target.com IN A -E(0)DC (172.20.0.5)
12-Jan-2023 14:27:35.327 info: client @0x7f6dc40107f8 172.20.0.12#12822 (sub.i8.target.com): query: sub.i8.target.com IN A -E(0)DC (172.20.0.5)
12-Jan-2023 14:27:35.327 info: client @0x7f6db401f8d8 172.20.0.12#59326 (j8.target.com): query: j8.target.com IN A -E(0)DC (172.20.0.5)
12-Jan-2023 14:27:35.327 info: client @0x7f6db401f8d8 172.20.0.12#31426 (sub.j8.target.com): query: sub.j8.target.com IN A -E(0)DC (172.20.0.5)
12-Jan-2023 14:27:35.337 info: client @0x7f6db401f8d8 172.20.0.12#56380 (k8.target.com): query: k8.target.com IN A -E(0)DC (172.20.0.5)
12-Jan-2023 14:27:35.337 info: client @0x7f6dd000eb28 172.20.0.12#16397 (sub.k8.target.com): query: sub.k8.target.com IN A -E(0)DC (172.20.0.5)
12-Jan-2023 14:27:35.337 info: client @0x7f6de8268678 172.20.0.12#56637 (l8.target.com): query: l8.target.com IN A -E(0)DC (172.20.0.5)
12-Jan-2023 14:27:35.337 info: client @0x7f6de0017ff8 172.20.0.12#64096 (sub.l8.target.com): query: sub.l8.target.com IN A -E(0)DC (172.20.0.5)
12-Jan-2023 14:27:35.337 info: client @0x7f6ddc011968 172.20.0.12#65368 (a7.target.com): query: a7.target.com IN A -E(0)DC (172.20.0.5)
12-Jan-2023 14:27:35.347 info: client @0x7f6de8268678 172.20.0.12#32485 (sub.a7.target.com): query: sub.a7.target.com IN A -E(0)DC (172.20.0.5)
12-Jan-2023 14:27:35.347 info: client @0x7f6db401f8d8 172.20.0.12#52555 (b7.target.com): query: b7.target.com IN A -E(0)DC (172.20.0.5)
12-Jan-2023 14:27:35.347 info: client @0x7f6de0017ff8 172.20.0.12#20687 (sub.b7.target.com): query: sub.b7.target.com IN A -E(0)DC (172.20.0.5)
12-Jan-2023 14:27:35.347 info: client @0x7f6db401f8d8 172.20.0.12#50210 (c7.target.com): query: c7.target.com IN A -E(0)DC (172.20.0.5)
12-Jan-2023 14:27:35.357 info: client @0x7f6dd8014878 172.20.0.12#55689 (sub.c7.target.com): query: sub.c7.target.com IN A -E(0)DC (172.20.0.5)
12-Jan-2023 14:27:35.357 info: client @0x7f6dc000e188 172.20.0.12#53669 (d7.target.com): query: d7.target.com IN A -E(0)DC (172.20.0.5)
12-Jan-2023 14:27:35.357 info: client @0x7f6dd000eb28 172.20.0.12#34760 (sub.d7.target.com): query: sub.d7.target.com IN A -E(0)DC (172.20.0.5)
12-Jan-2023 14:27:35.357 info: client @0x7f6ddc011968 172.20.0.12#63621 (e7.target.com): query: e7.target.com IN A -E(0)DC (172.20.0.5)
12-Jan-2023 14:27:35.357 info: client @0x7f6dbc0283f8 172.20.0.12#8229 (sub.e7.target.com): query: sub.e7.target.com IN A -E(0)DC (172.20.0.5)
12-Jan-2023 14:27:35.367 info: client @0x7f6dd8014878 172.20.0.12#29241 (f7.target.com): query: f7.target.com IN A -E(0)DC (172.20.0.5)
12-Jan-2023 14:27:35.367 info: client @0x7f6de8268678 172.20.0.12#45661 (sub.f7.target.com): query: sub.f7.target.com IN A -E(0)DC (172.20.0.5)
12-Jan-2023 14:27:35.367 info: client @0x7f6dbc0283f8 172.20.0.12#22237 (g7.target.com): query: g7.target.com IN A -E(0)DC (172.20.0.5)
12-Jan-2023 14:27:35.367 info: client @0x7f6dcc001d48 172.20.0.12#55018 (sub.g7.target.com): query: sub.g7.target.com IN A -E(0)DC (172.20.0.5)
12-Jan-2023 14:27:35.377 info: client @0x7f6ddc011968 172.20.0.12#59205 (h7.target.com): query: h7.target.com IN A -E(0)DC (172.20.0.5)
12-Jan-2023 14:27:35.377 info: client @0x7f6dd8014878 172.20.0.12#7540 (sub.h7.target.com): query: sub.h7.target.com IN A -E(0)DC (172.20.0.5)
12-Jan-2023 14:27:35.377 info: client @0x7f6de0017ff8 172.20.0.12#34803 (i7.target.com): query: i7.target.com IN A -E(0)DC (172.20.0.5)
12-Jan-2023 14:27:35.377 info: client @0x7f6dd8014878 172.20.0.12#12710 (sub.i7.target.com): query: sub.i7.target.com IN A -E(0)DC (172.20.0.5)
12-Jan-2023 14:27:35.387 info: client @0x7f6de0017ff8 172.20.0.12#64194 (j7.target.com): query: j7.target.com IN A -E(0)DC (172.20.0.5)
12-Jan-2023 14:27:35.387 info: client @0x7f6dc80742d8 172.20.0.12#49527 (sub.j7.target.com): query: sub.j7.target.com IN A -E(0)DC (172.20.0.5)
12-Jan-2023 14:27:35.387 info: client @0x7f6dc000e188 172.20.0.12#54461 (k7.target.com): query: k7.target.com IN A -E(0)DC (172.20.0.5)
12-Jan-2023 14:27:35.387 info: client @0x7f6dd000eb28 172.20.0.12#41091 (sub.k7.target.com): query: sub.k7.target.com IN A -E(0)DC (172.20.0.5)
12-Jan-2023 14:27:35.397 info: client @0x7f6dcc001d48 172.20.0.12#53215 (l7.target.com): query: l7.target.com IN A -E(0)DC (172.20.0.5)
12-Jan-2023 14:27:35.397 info: client @0x7f6de8268678 172.20.0.12#30133 (sub.l7.target.com): query: sub.l7.target.com IN A -E(0)DC (172.20.0.5)