12-Jan-2023 02:20:24.762 info: client @0x7f046c001d48 172.20.0.14#8195 (a4.target.com): query: a4.target.com IN A -E(0) (172.20.0.5)
12-Jan-2023 02:20:24.772 info: client @0x7f049810c8d8 172.20.0.14#22251 (c4.target.com): query: c4.target.com IN A -E(0) (172.20.0.5)
12-Jan-2023 02:20:24.772 info: client @0x7f048800e098 172.20.0.14#22450 (e4.target.com): query: e4.target.com IN A -E(0) (172.20.0.5)
12-Jan-2023 02:20:24.772 info: client @0x7f046c001d48 172.20.0.14#21926 (g4.target.com): query: g4.target.com IN A -E(0) (172.20.0.5)
12-Jan-2023 02:20:24.772 info: client @0x7f049810c8d8 172.20.0.14#30493 (i4.target.com): query: i4.target.com IN A -E(0) (172.20.0.5)
12-Jan-2023 02:20:24.772 info: client @0x7f0490007448 172.20.0.14#20988 (k4.target.com): query: k4.target.com IN A -E(0) (172.20.0.5)
12-Jan-2023 02:20:24.772 info: client @0x7f049401b318 172.20.0.14#13090 (a1.target.com): query: a1.target.com IN A -E(0) (172.20.0.5)
12-Jan-2023 02:20:24.772 info: client @0x7f048800e098 172.20.0.14#30514 (c1.target.com): query: c1.target.com IN A -E(0) (172.20.0.5)
12-Jan-2023 02:20:24.772 info: client @0x7f0490007448 172.20.0.14#37657 (e1.target.com): query: e1.target.com IN A -E(0) (172.20.0.5)
12-Jan-2023 02:20:24.772 info: client @0x7f048c050d38 172.20.0.14#50443 (g1.target.com): query: g1.target.com IN A -E(0) (172.20.0.5)
12-Jan-2023 02:20:24.772 info: client @0x7f049810c8d8 172.20.0.14#39621 (i1.target.com): query: i1.target.com IN A -E(0) (172.20.0.5)
12-Jan-2023 02:20:24.772 info: client @0x7f047c00d518 172.20.0.14#58359 (k1.target.com): query: k1.target.com IN A -E(0) (172.20.0.5)
12-Jan-2023 02:20:24.782 info: client @0x7f0490007448 172.20.0.14#25314 (a2.target.com): query: a2.target.com IN A -E(0) (172.20.0.5)
12-Jan-2023 02:20:24.782 info: client @0x7f049810c8d8 172.20.0.14#42739 (c2.target.com): query: c2.target.com IN A -E(0) (172.20.0.5)
12-Jan-2023 02:20:24.782 info: client @0x7f0470006278 172.20.0.14#53347 (e2.target.com): query: e2.target.com IN A -E(0) (172.20.0.5)
12-Jan-2023 02:20:24.782 info: client @0x7f0478017448 172.20.0.14#28676 (g2.target.com): query: g2.target.com IN A -E(0) (172.20.0.5)
12-Jan-2023 02:20:24.782 info: client @0x7f049401b318 172.20.0.14#10521 (i2.target.com): query: i2.target.com IN A -E(0) (172.20.0.5)
12-Jan-2023 02:20:24.782 info: client @0x7f049401b318 172.20.0.14#15624 (k2.target.com): query: k2.target.com IN A -E(0) (172.20.0.5)
12-Jan-2023 02:20:24.782 info: client @0x7f0478017448 172.20.0.14#15984 (a3.target.com): query: a3.target.com IN A -E(0) (172.20.0.5)
12-Jan-2023 02:20:24.782 info: client @0x7f0468005b18 172.20.0.14#22407 (c3.target.com): query: c3.target.com IN A -E(0) (172.20.0.5)
12-Jan-2023 02:20:24.782 info: client @0x7f047c00d518 172.20.0.14#50619 (e3.target.com): query: e3.target.com IN A -E(0) (172.20.0.5)
12-Jan-2023 02:20:24.782 info: client @0x7f048c050d38 172.20.0.14#3172 (g3.target.com): query: g3.target.com IN A -E(0) (172.20.0.5)
12-Jan-2023 02:20:24.782 info: client @0x7f0470006278 172.20.0.14#13121 (i3.target.com): query: i3.target.com IN A -E(0) (172.20.0.5)
12-Jan-2023 02:20:24.792 info: client @0x7f048800e098 172.20.0.14#45479 (k3.target.com): query: k3.target.com IN A -E(0) (172.20.0.5)
12-Jan-2023 02:20:24.792 info: client @0x7f046c001d48 172.20.0.14#30714 (a5.target.com): query: a5.target.com IN A -E(0) (172.20.0.5)
12-Jan-2023 02:20:24.792 info: client @0x7f048c050d38 172.20.0.14#16256 (c5.target.com): query: c5.target.com IN A -E(0) (172.20.0.5)
12-Jan-2023 02:20:24.792 info: client @0x7f047400ea38 172.20.0.14#22469 (e5.target.com): query: e5.target.com IN A -E(0) (172.20.0.5)
12-Jan-2023 02:20:24.792 info: client @0x7f047400ea38 172.20.0.14#57563 (g5.target.com): query: g5.target.com IN A -E(0) (172.20.0.5)
12-Jan-2023 02:20:24.792 info: client @0x7f0478017448 172.20.0.14#37986 (i5.target.com): query: i5.target.com IN A -E(0) (172.20.0.5)
12-Jan-2023 02:20:24.792 info: client @0x7f046c001d48 172.20.0.14#35238 (k5.target.com): query: k5.target.com IN A -E(0) (172.20.0.5)